…
    ## • Centering and scaling for: stu_per_frl, stu_per_speced, ... | Trained

``` r
cr_rec%>%
  prep()%>%
   bake(train)
```

    ## Warning in stats::cor(x, use = use, method = method): the standard deviation is
    ## zero

    ## Warning in stats::cor(x, use = use, method = method): The correlation matrix
    ## has missing values. 2 columns were excluded from the filter.

    ## # A tibble: 9,952 × 51
    ##    stu_per_frl stu_per_speced stu_per_black stu_per_hisp stu_per_white
    ##          <dbl>          <dbl>         <dbl>        <dbl>         <dbl>
    ##  1     -1.63            0.899        0.0497      -0.514          0.143
    ##  2     -1.22            0.303       -0.347       -0.601          0.785
    ##  3     -1.15           -0.640       -0.394       -0.505          0.793
    ##  4      0.937           0.359       -0.423       -0.611          0.951
    ##  5     -0.0487          0.192       -0.323        0.0544         0.290
    ##  6      0.994           1.11         1.94         0.844         -1.51 
    ##  7     -1.92           -0.131       -0.342       -0.158         -0.452
    ##  8      0.926           0.235        0.381        2.87          -0.632
    ##  9     -0.174          -1.39        NA            4.07           1.07 
    ## 10     -0.348           0.945       -0.342       -0.510          0.700
    ## # ℹ 9,942 more rows
    ## # ℹ 46 more variables: stu_per_multi <dbl>, ngh_per_asian <dbl>,
    ## #   ngh_per_baplus <dbl>, ngh_per_poverty <dbl>, ngh_per_unemp <dbl>,
    ## #   ngh_per_singlemom <dbl>, ngh_pupilteachratio <dbl>, ngh_per_multi <dbl>,
    ## #   iss <dbl>, urbanicity_Suburban <dbl>, urbanicity_Town <dbl>,
    ## #   urbanicity_Urban <dbl>, state_name_Arizona <dbl>,
    ## #   state_name_Arkansas <dbl>, state_name_California <dbl>, …
…
